{"items":[{"rid":228669,"name":"GB Test RID- Test","addressResponse":{"address1":"14 Finsbury Square,Apt#1603933169","city":"London","postalCode":"EC2A 1AH","country":"UK"},"productType":["Guest_Center"],"testRestaurant":true},{"rid":1082524,"name":"Benaz's Test Connect- Test","addressResponse":{"address1":"120 Kearny St Apt 1597785413","city":"San Francisco","province":"California","postalCode":"94108-4814","country":"US"},"productType":["Guest_Center","Guest_Center_Connect"],"testRestaurant":true},{"rid":1048222,"name":"Venga Onboarding Test- Test","addressResponse":{"address1":"120 Kearny St Apt 1563230482","city":"San Francisco","province":"California","postalCode":"94108-4814","country":"US"},"productType":["Guest_Center"],"testRestaurant":true},{"rid":173940,"name":"GC Messages Team-Test- Test","addressResponse":{"address1":"14 Finsbury Square,Apt#1555493541","city":"London","postalCode":"EC2A 1AH","country":"UK"},"productType":["Guest_Center"],"testRestaurant":true},{"rid":1062886,"name":"Caesars Test 1- Test","addressResponse":{"address1":"120 Kearny St Apt 1575923882","city":"San Francisco","province":"California","postalCode":"94108-4814","country":"US"},"productType":["Guest_Center"],"testRestaurant":true},{"rid":131165,"name":"Tony Test Restaurant 01- Test","addressResponse":{"address1":"Apt #1582168720 84 Hotham St","city":"Preston","province":"Victoria","postalCode":"3072","country":"AU"},"productType":["Guest_Center"],"testRestaurant":true},{"rid":1024147,"name":"Test Restaurant Yadnyesh- Test","addressResponse":{"address1":"1 Montgomery St","city":"San Francisco","province":"California","postalCode":"94104","country":"US"},"productType":["Guest_Center"],"testRestaurant":true},{"rid":1087060,"name":"Sanman grub - TEST- Test","addressResponse":{"address1":"120 Kearny St Apt 1601049935","city":"San Francisco","province":"California","postalCode":"94108-4814","country":"US"},"productType":["Guest_Center"],"testRestaurant":true},{"rid":125072,"name":"Tony Test Restaurant- Test","addressResponse":{"address1":"Apt #1574899348 84 Hotham St","city":"Preston","province":"Victoria","postalCode":"3072","country":"AU"},"productType":["Guest_Center"],"testRestaurant":true},{"rid":146840,"name":"Au Test - Guest Center- Test","addressResponse":{"address1":"Apt #1604454231 84 Hotham St","city":"Preston","province":"Victoria","postalCode":"3072","country":"AU"},"productType":["Guest_Center"],"testRestaurant":true},{"rid":181146,"name":"Julia e2e prod test - Italy Test","addressResponse":{"address1":"Via Carlo Alberto 0830133241","city":"Pompei","postalCode":"80045","country":"IT"},"productType":["Guest_Center","Promoted_Offers"],"testRestaurant":true},{"rid":1052191,"name":"Erkan - Test Restaurant- Test","addressResponse":{"address1":"120 Kearny St Apt 1568758664","city":"San Francisco","province":"California","postalCode":"94108-4814","country":"US"},"productType":["Guest_Center"],"testRestaurant":true},{"rid":1074622,"name":"Cass's Test Restaurant- Test","addressResponse":{"address1":"120 Kearny St Apt 1589292522","city":"San Francisco","province":"California","postalCode":"94108-4814","country":"US"},"productType":["Guest_Center"],"testRestaurant":true},{"rid":1073539,"name":"Enterprise Test Grocery- Test","addressResponse":{"address1":"120 Kearny St Apt 1586804782","city":"San Francisco","province":"California","postalCode":"94108-4814","country":"US"},"productType":["Guest_Center"],"testRestaurant":true},{"rid":1063039,"name":"Badri-tag-test- Test","addressResponse":{"address1":"120 Kearny St Apt 1576017941","city":"San Francisco","province":"California","postalCode":"94108-4814","country":"US"},"productType":["Guest_Center"],"testRestaurant":true}],"pageIndex":0,"pageSize":15,"totalResults":1102,"totalPages":74}

